{
    "windows" : {
        "package" : "http://otc-mesa-android.jf.intel.com/userContent/benchmarks/linux/gfxbench_vulkan-vs2015-x64-5.0.0-GOLD2+corporate.zip",
        "executable" : "gfxbench_vulkan-vs2015-x64-5.0.0-GOLD2+corporate/bin/testfw_app.exe"
    },
    "linux" : {
        "package" : "http://otc-mesa-android.jf.intel.com/userContent/benchmarks/linux/gfxbench_vulkan-linux-x86_64-5.0.0-GOLD2+corporate.zip",
        "executable" : "gfxbench_vulkan-linux-x86_64-5.0.0-GOLD2+corporate/bin/testfw_app"
    }
}
